<svg width="22" height="23" viewBox="0 0 22 23" fill="none" xmlns="http://www.w3.org/2000/svg">
<path fill-rule="evenodd" clip-rule="evenodd" d="M2.34598 9.04912H8.65495V2.45088C8.65495 1.0968 9.70583 0 11.0009 0C12.2942 0 13.3432 1.0968 13.3432 2.45088V9.04912H19.654C20.951 9.04912 22 10.1459 22 11.5C22 12.8541 20.951 13.9509 19.654 13.9509H13.3432V20.5491C13.3432 21.9032 12.2942 23 11.0009 23C9.70583 23 8.65495 21.9032 8.65495 20.5491V13.9509H2.34598C1.05088 13.9509 0 12.8541 0 11.5C0 10.1459 1.05088 9.04912 2.34598 9.04912Z" fill="#D0021B"/>
</svg>
