<svg width="20" height="20" viewBox="0 0 20 20" fill="none" xmlns="http://www.w3.org/2000/svg">
<path fill-rule="evenodd" clip-rule="evenodd" d="M0 10C0 15.5225 4.47682 20 9.99853 20C15.5202 20 20 15.5225 20 10C20 4.47748 15.5202 0 9.99853 0C4.47682 0 0 4.47748 0 10Z" fill="#636363"/>
</svg>
